%YAML 1.1
%TAG !u! tag:unity3d.com,2011:
--- !u!114 &11400000
MonoBehaviour:
  m_ObjectHideFlags: 0
  m_CorrespondingSourceObject: {fileID: 0}
  m_PrefabInstance: {fileID: 0}
  m_PrefabAsset: {fileID: 0}
  m_GameObject: {fileID: 0}
  m_Enabled: 1
  m_EditorHideFlags: 0
  m_Script: {fileID: 11500000, guid: ba5a11d304a48244b881796da3cf4793, type: 3}
  m_Name: CardVisitDoctor
  m_EditorClassIdentifier: 
  cardMaterial: {fileID: 2100000, guid: 227c266283d47014daa37965b014259f, type: 2}
  cardTexture: {fileID: 2800000, guid: 8f52c1a099ccc8a409e442dc23b778a9, type: 3}
  giveHP: 8
  cardName: '%CardTitleVisitDoctor%'
  cardDescription: '%CardDescriptionVisitDoctor%'
  cardGoodDiceRoll: '%CardGoodDiceVisitDoctor%'
  cardBadDiceRoll: '%CardBadDiceVisitDoctor%'
  isNeedToRoll: 1
  isConditionToPassEvent: 1
  isGiveHPByDiseResult: 0
  isLoseHPByDiseResult: 0
  codition: 1
  rollValue: 9
  disableCards:
  - {fileID: 11400000, guid: 3b45e7d3c2952fc44b44544970cc86c4, type: 2}
  canBeSpawnedOnlyOnce: 1
  ifSuccesfullMoveOnCard: []
  ifNotSuccesfullMoveOnCard: []
