%YAML 1.1
%TAG !u! tag:unity3d.com,2011:
--- !u!114 &11400000
MonoBehaviour:
  m_ObjectHideFlags: 0
  m_CorrespondingSourceObject: {fileID: 0}
  m_PrefabInstance: {fileID: 0}
  m_PrefabAsset: {fileID: 0}
  m_GameObject: {fileID: 0}
  m_Enabled: 1
  m_EditorHideFlags: 0
  m_Script: {fileID: 11500000, guid: ba5a11d304a48244b881796da3cf4793, type: 3}
  m_Name: CardAGoodEducation
  m_EditorClassIdentifier: 
  cardMaterial: {fileID: 2100000, guid: db7ef6e0031922c4fa2be52693d9fd87, type: 2}
  cardTexture: {fileID: 2800000, guid: 1a5dbf97aecd38945a68d3fa203b4847, type: 3}
  giveHP: 6
  cardName: '%CardTitleAGoodEducation%'
  cardDescription: '%CardDescriptionAGoodEducation%'
  cardGoodDiceRoll: 
  cardBadDiceRoll: 
  isNeedToRoll: 0
  isConditionToPassEvent: 0
  isGiveHPByDiseResult: 0
  isLoseHPByDiseResult: 0
  codition: 0
  rollValue: 5
  disableCards:
  - {fileID: 11400000, guid: ce1487e84a2a7b843857d994d2eddd5b, type: 2}
  - {fileID: 11400000}
  canBeSpawnedOnlyOnce: 0
  ifSuccesfullMoveOnCard: []
  ifNotSuccesfullMoveOnCard: []
