%YAML 1.1
%TAG !u! tag:unity3d.com,2011:
--- !u!114 &11400000
MonoBehaviour:
  m_ObjectHideFlags: 0
  m_CorrespondingSourceObject: {fileID: 0}
  m_PrefabInstance: {fileID: 0}
  m_PrefabAsset: {fileID: 0}
  m_GameObject: {fileID: 0}
  m_Enabled: 1
  m_EditorHideFlags: 0
  m_Script: {fileID: 11500000, guid: ba5a11d304a48244b881796da3cf4793, type: 3}
  m_Name: "CardGood\u0421onnections"
  m_EditorClassIdentifier: 
  cardMaterial: {fileID: 2100000, guid: 36d6d00c5d6849c428e97627ea792cc4, type: 2}
  cardTexture: {fileID: 2800000, guid: eeaa20a98d336ec4b9c707b3aa85ec1c, type: 3}
  giveHP: 3
  cardName: "%CardTitleGood\u0421onnections%"
  cardDescription: "%CardDescriptionGood\u0421onnections%"
  cardGoodDiceRoll: 
  cardBadDiceRoll: 
  isNeedToRoll: 0
  isConditionToPassEvent: 0
  isGiveHPByDiseResult: 0
  isLoseHPByDiseResult: 0
  codition: 0
  rollValue: 5
  disableCards:
  - {fileID: 11400000, guid: 94a6b43973d479b4eac1b2739167c2ac, type: 2}
  - {fileID: 11400000, guid: d6be3762d97901147932310035cbab84, type: 2}
  - {fileID: 11400000, guid: 155f84fc073f56a4e9d0775df72f709f, type: 2}
  - {fileID: 11400000}
  canBeSpawnedOnlyOnce: 0
  ifSuccesfullMoveOnCard: []
  ifNotSuccesfullMoveOnCard: []
