%YAML 1.1
%TAG !u! tag:unity3d.com,2011:
--- !u!114 &11400000
MonoBehaviour:
  m_ObjectHideFlags: 0
  m_CorrespondingSourceObject: {fileID: 0}
  m_PrefabInstance: {fileID: 0}
  m_PrefabAsset: {fileID: 0}
  m_GameObject: {fileID: 0}
  m_Enabled: 1
  m_EditorHideFlags: 0
  m_Script: {fileID: 11500000, guid: ba5a11d304a48244b881796da3cf4793, type: 3}
  m_Name: CardBananaPeel
  m_EditorClassIdentifier: 
  cardMaterial: {fileID: 2100000, guid: 2e1717f04690698439fcfe71e753cb4b, type: 2}
  cardTexture: {fileID: 2800000, guid: c38dac67e1228ba42a863ae6730fff58, type: 3}
  giveHP: -6
  cardName: '%CardTitleBananaPeel%'
  cardDescription: '%CardDescriptionBananaPeel%'
  cardGoodDiceRoll: '%CardGoodDiceBananaPeel%'
  cardBadDiceRoll: '%CardBadDiceBananaPeel%'
  isNeedToRoll: 1
  isConditionToPassEvent: 1
  isGiveHPByDiseResult: 0
  isLoseHPByDiseResult: 0
  codition: 1
  rollValue: 7
  disableCards: []
  canBeSpawnedOnlyOnce: 0
  ifSuccesfullMoveOnCard:
  - {fileID: 11400000, guid: f4ab45af6ef4a7b42b35682c49c05a18, type: 2}
  ifNotSuccesfullMoveOnCard: []
