%YAML 1.1
%TAG !u! tag:unity3d.com,2011:
--- !u!114 &11400000
MonoBehaviour:
  m_ObjectHideFlags: 0
  m_CorrespondingSourceObject: {fileID: 0}
  m_PrefabInstance: {fileID: 0}
  m_PrefabAsset: {fileID: 0}
  m_GameObject: {fileID: 0}
  m_Enabled: 1
  m_EditorHideFlags: 0
  m_Script: {fileID: 11500000, guid: ba5a11d304a48244b881796da3cf4793, type: 3}
  m_Name: CardShipwreck
  m_EditorClassIdentifier: 
  cardMaterial: {fileID: 2100000, guid: 71aa5b0f31e68e24d9d2a5db8ceea675, type: 2}
  cardTexture: {fileID: 2800000, guid: 0330fdd5ec0ea97488339780df3c3810, type: 3}
  giveHP: -7
  cardName: '%CardTitleShipwreck%'
  cardDescription: '%CardDescriptionShipwreck%'
  cardGoodDiceRoll: '%CardGoodDiceShipwreck%'
  cardBadDiceRoll: '%CardBadDiceShipwreck%'
  isNeedToRoll: 1
  isConditionToPassEvent: 1
  isGiveHPByDiseResult: 0
  isLoseHPByDiseResult: 0
  codition: 0
  rollValue: 6
  disableCards: []
  canBeSpawnedOnlyOnce: 0
  ifSuccesfullMoveOnCard: []
  ifNotSuccesfullMoveOnCard: []
