%YAML 1.1
%TAG !u! tag:unity3d.com,2011:
--- !u!114 &11400000
MonoBehaviour:
  m_ObjectHideFlags: 0
  m_CorrespondingSourceObject: {fileID: 0}
  m_PrefabInstance: {fileID: 0}
  m_PrefabAsset: {fileID: 0}
  m_GameObject: {fileID: 0}
  m_Enabled: 1
  m_EditorHideFlags: 0
  m_Script: {fileID: 11500000, guid: ba5a11d304a48244b881796da3cf4793, type: 3}
  m_Name: CardPoorEducation
  m_EditorClassIdentifier: 
  cardMaterial: {fileID: 2100000, guid: f409061d5efad7b41bea5db0884307ee, type: 2}
  cardTexture: {fileID: 2800000, guid: a6a3748777bc93346875ae055aea77ba, type: 3}
  giveHP: -10
  cardName: '%CardTitlePoorEducation%'
  cardDescription: '%CardDescriptionPoorEducation%'
  cardGoodDiceRoll: 
  cardBadDiceRoll: 
  isNeedToRoll: 0
  codition: 0
  rollValue: 5
  disableCards:
  - {fileID: 11400000, guid: b18f31e55f245634a877ff8a8e6669d2, type: 2}
  - {fileID: 11400000, guid: 57df6e4bc5382d74c9fb224a1e6015ed, type: 2}
  - {fileID: 11400000, guid: d44793e46fd58134db8cd96568391bc7, type: 2}
  - {fileID: 11400000}
  canBeSpawnedOnlyOnce: 0
