%YAML 1.1
%TAG !u! tag:unity3d.com,2011:
--- !u!114 &11400000
MonoBehaviour:
  m_ObjectHideFlags: 0
  m_CorrespondingSourceObject: {fileID: 0}
  m_PrefabInstance: {fileID: 0}
  m_PrefabAsset: {fileID: 0}
  m_GameObject: {fileID: 0}
  m_Enabled: 1
  m_EditorHideFlags: 0
  m_Script: {fileID: 11500000, guid: ba5a11d304a48244b881796da3cf4793, type: 3}
  m_Name: CardDangerousJob
  m_EditorClassIdentifier: 
  cardMaterial: {fileID: 2100000, guid: 50bba67b64492a14db27d2112846cebb, type: 2}
  cardTexture: {fileID: 2800000, guid: 198700bbfe6802942b3efb8af45e63c9, type: 3}
  giveHP: -5
  cardName: '%CardTitleDangerousJob%'
  cardDescription: '%CardDescriptionDangerousJob%'
  cardGoodDiceRoll: '%CardGoodDiceDangerousJob%'
  cardBadDiceRoll: '%CardBadDiceDangerousJob%'
  isNeedToRoll: 1
  isConditionToPassEvent: 1
  isGiveHPByDiseResult: 0
  isLoseHPByDiseResult: 0
  codition: 0
  rollValue: 5
  disableCards: []
  canBeSpawnedOnlyOnce: 0
  ifSuccesfullMoveOnCard:
  - {fileID: 11400000, guid: f4ab45af6ef4a7b42b35682c49c05a18, type: 2}
  ifNotSuccesfullMoveOnCard: []
