%YAML 1.1
%TAG !u! tag:unity3d.com,2011:
--- !u!114 &11400000
MonoBehaviour:
  m_ObjectHideFlags: 0
  m_CorrespondingSourceObject: {fileID: 0}
  m_PrefabInstance: {fileID: 0}
  m_PrefabAsset: {fileID: 0}
  m_GameObject: {fileID: 0}
  m_Enabled: 1
  m_EditorHideFlags: 0
  m_Script: {fileID: 11500000, guid: ba5a11d304a48244b881796da3cf4793, type: 3}
  m_Name: CardAlcoholism
  m_EditorClassIdentifier: 
  cardMaterial: {fileID: 2100000, guid: e5e786f3f1d99f14bb07ba02b4cc6cc1, type: 2}
  cardTexture: {fileID: 2800000, guid: 32c78d7dcb254284286e7495f3020e7d, type: 3}
  giveHP: -16
  cardName: '%CardTitleAlcoholism%'
  cardDescription: '%CardDescriptionAlcoholism%'
  cardGoodDiceRoll: 
  cardBadDiceRoll: 
  isNeedToRoll: 0
  codition: 0
  rollValue: 5
  disableCards:
  - {fileID: 11400000, guid: b18f31e55f245634a877ff8a8e6669d2, type: 2}
  - {fileID: 11400000, guid: 4046d2f29ca1dec49972c0fa59b922b5, type: 2}
  - {fileID: 11400000, guid: 5531cb0e79750164792f74220af9f1b6, type: 2}
  - {fileID: 11400000, guid: d44793e46fd58134db8cd96568391bc7, type: 2}
  - {fileID: 11400000, guid: a27b1ed109b65ae469a9495804f9c212, type: 2}
  canBeSpawnedOnlyOnce: 0
